{
  "tracks": {
    "href": "https://api.spotify.com/v1/search?offset=0&limit=5&query=American%20Girl&type=track&market=US&locale=en-US,en;q%3D0.9",
    "limit": 5,
    "next": "https://api.spotify.com/v1/search?offset=5&limit=5&query=American%20Girl&type=track&market=US&locale=en-US,en;q%3D0.9",
    "offset": 0,
    "previous": null,
    "total": 897,
    "items": [
      {
        "album": {
          "album_type": "compilation",
          "total_tracks": 18,
          "external_urls": {
            "spotify": "https://open.spotify.com/album/3q6Bz38jmqRDkXI7j5Hb9Y"
          },
          "href": "https://api.spotify.com/v1/albums/3q6Bz38jmqRDkXI7j5Hb9Y",
          "id": "3q6Bz38jmqRDkXI7j5Hb9Y",
          "images": [
            {
              "url": "https://i.scdn.co/image/ab67616d0000b2730c3a1b46b6b846dfdfbc6a7d",
              "height": 640,
              "width": 640
            },
            {
              "url": "https://i.scdn.co/image/ab67616d00001e020c3a1b46b6b846dfdfbc6a7d",
              "height": 300,
              "width": 300
            },
            {
              "url": "https://i.scdn.co/image/ab67616d000048510c3a1b46b6b846dfdfbc6a7d",
              "height": 64,
              "width": 64
            }
          ],
          "name": "Greatest Hits",
          "release_date": "2008-05-20",
          "release_date_precision": "day",
          "type": "album",
          "uri": "spotify:album:3q6Bz38jmqRDkXI7j5Hb9Y",
          "artists": [
            {
              "external_urls": {
                "spotify": "https://open.spotify.com/artist/4tX2TplrkIP4v05BNC903e"
              },
              "href": "https://api.spotify.com/v1/artists/4tX2TplrkIP4v05BNC903e",
              "id": "4tX2TplrkIP4v05BNC903e",
              "name": "Tom Petty and the Heartbreakers",
              "type": "artist",
              "uri": "spotify:artist:4tX2TplrkIP4v05BNC903e"
            }
          ],
          "is_playable": true
        },
        "artists": [
          {
            "external_urls": {
              "spotify": "https://open.spotify.com/artist/4tX2TplrkIP4v05BNC903e"
            },
            "href": "https://api.spotify.com/v1/artists/4tX2TplrkIP4v05BNC903e",
            "id": "4tX2TplrkIP4v05BNC903e",
            "name": "Tom Petty and the Heartbreakers",
            "type": "artist",
            "uri": "spotify:artist:4tX2TplrkIP4v05BNC903e"
          }
        ],
        "disc_number": 1,
        "duration_ms": 210453,
        "explicit": false,
        "external_ids": {
          "isrc": "USUG10400001"
        },
        "external_urls": {
          "spotify": "https://open.spotify.com/track/6SIV02mskzzc3KXK7t4NHj"
        },
        "href": "https://api.spotify.com/v1/tracks/6SIV02mskzzc3KXK7t4NHj",
        "id": "6SIV02mskzzc3KXK7t4NHj",
        "is_playable": true,
        "name": "American Girl",
        "popularity": 54,
        "preview_url": null,
        "track_number": 1,
        "type": "track",
        "uri": "spotify:track:6SIV02mskzzc3KXK7t4NHj",
        "is_local": false
      },
      {
        "album": {
          "album_type": "album",
          "total_tracks": 13,
          "external_urls": {
            "spotify": "https://open.spotify.com/album/5HwzpaqYOZABPnmvl5JYFX"
          },
          "href": "https://api.spotify.com/v1/albums/5HwzpaqYOZABPnmvl5JYFX",
          "id": "5HwzpaqYOZABPnmvl5JYFX",
          "images": [
            {
              "url": "https://i.scdn.co/image/ab67616d0000b2738b3962e95912849e28378231",
              "height": 640,
              "width": 640
            },
            {
              "url": "https://i.scdn.co/image/ab67616d00001e028b3962e95912849e28378231",
              "height": 300,
              "width": 300
            },
            {
              "url": "https://i.scdn.co/image/ab67616d000048518b3962e95912849e28378231",
              "height": 64,
              "width": 64
            }
          ],
          "name": "Carnival Ride",
          "release_date": "2007-10-23",
          "release_date_precision": "day",
          "type": "album",
          "uri": "spotify:album:5HwzpaqYOZABPnmvl5JYFX",
          "artists": [
            {
              "external_urls": {
                "spotify": "https://open.spotify.com/artist/4xFUf1FHVy696Q1JQZMTRj"
              },
              "href": "https://api.spotify.com/v1/artists/4xFUf1FHVy696Q1JQZMTRj",
              "id": "4xFUf1FHVy696Q1JQZMTRj",
              "name": "Carrie Underwood",
              "type": "artist",
              "uri": "spotify:artist:4xFUf1FHVy696Q1JQZMTRj"
            }
          ],
          "is_playable": true
        },
        "artists": [
          {
            "external_urls": {
              "spotify": "https://open.spotify.com/artist/4xFUf1FHVy696Q1JQZMTRj"
            },
            "href": "https://api.spotify.com/v1/artists/4xFUf1FHVy696Q1JQZMTRj",
            "id": "4xFUf1FHVy696Q1JQZMTRj",
            "name": "Carrie Underwood",
            "type": "artist",
            "uri": "spotify:artist:4xFUf1FHVy696Q1JQZMTRj"
          }
        ],
        "disc_number": 1,
        "duration_ms": 212173,
        "explicit": false,
        "external_ids": {
          "isrc": "GBCTA0700252"
        },
        "external_urls": {
          "spotify": "https://open.spotify.com/track/2dRPQFwPqAmc42mDRnsDQu"
        },
        "href": "https://api.spotify.com/v1/tracks/2dRPQFwPqAmc42mDRnsDQu",
        "id": "2dRPQFwPqAmc42mDRnsDQu",
        "is_playable": true,
        "name": "All-American Girl",
        "popularity": 65,
        "preview_url": null,
        "track_number": 2,
        "type": "track",
        "uri": "spotify:track:2dRPQFwPqAmc42mDRnsDQu",
        "is_local": false
      },
      {
        "album": {
          "album_type": "album",
          "total_tracks": 10,
          "external_urls": {
            "spotify": "https://open.spotify.com/album/0JBy4lxBlQIxMZ8qPMIJER"
          },
          "href": "https://api.spotify.com/v1/albums/0JBy4lxBlQIxMZ8qPMIJER",
          "id": "0JBy4lxBlQIxMZ8qPMIJER",
          "images": [
            {
              "url": "https://i.scdn.co/image/ab67616d0000b273d38733f240ef69763120a469",
              "height": 640,
              "width": 640
            },
            {
              "url": "https://i.scdn.co/image/ab67616d00001e02d38733f240ef69763120a469",
              "height": 300,
              "width": 300
            },
            {
              "url": "https://i.scdn.co/image/ab67616d00004851d38733f240ef69763120a469",
              "height": 64,
              "width": 64
            }
          ],
          "name": "Tom Petty And The Heartbreakers",
          "release_date": "1976-11-09",
          "release_date_precision": "day",
          "type": "album",
          "uri": "spotify:album:0JBy4lxBlQIxMZ8qPMIJER",
          "artists": [
            {
              "external_urls": {
                "spotify": "https://open.spotify.com/artist/4tX2TplrkIP4v05BNC903e"
              },
              "href": "https://api.spotify.com/v1/artists/4tX2TplrkIP4v05BNC903e",
              "id": "4tX2TplrkIP4v05BNC903e",
              "name": "Tom Petty and the Heartbreakers",
              "type": "artist",
              "uri": "spotify:artist:4tX2TplrkIP4v05BNC903e"
            }
          ],
          "is_playable": true
        },
        "artists": [
          {
            "external_urls": {
              "spotify": "https://open.spotify.com/artist/4tX2TplrkIP4v05BNC903e"
            },
            "href": "https://api.spotify.com/v1/artists/4tX2TplrkIP4v05BNC903e",
            "id": "4tX2TplrkIP4v05BNC903e",
            "name": "Tom Petty and the Heartbreakers",
            "type": "artist",
            "uri": "spotify:artist:4tX2TplrkIP4v05BNC903e"
          }
        ],
        "disc_number": 1,
        "duration_ms": 214733,
        "explicit": false,
        "external_ids": {
          "isrc": "USMC17641688"
        },
        "external_urls": {
          "spotify": "https://open.spotify.com/track/53LwBS4bovyljsMlLqGfd6"
        },
        "href": "https://api.spotify.com/v1/tracks/53LwBS4bovyljsMlLqGfd6",
        "id": "53LwBS4bovyljsMlLqGfd6",
        "is_playable": true,
        "name": "American Girl",
        "popularity": 75,
        "preview_url": null,
        "track_number": 10,
        "type": "track",
        "uri": "spotify:track:53LwBS4bovyljsMlLqGfd6",
        "is_local": false
      },
      {
        "album": {
          "album_type": "single",
          "total_tracks": 1,
          "external_urls": {
            "spotify": "https://open.spotify.com/album/4PwSDqUwhh4sZUHyi7UzXb"
          },
          "href": "https://api.spotify.com/v1/albums/4PwSDqUwhh4sZUHyi7UzXb",
          "id": "4PwSDqUwhh4sZUHyi7UzXb",
          "images": [
            {
              "url": "https://i.scdn.co/image/ab67616d0000b2734057fa6837109035dcde0e07",
              "height": 640,
              "width": 640
            },
            {
              "url": "https://i.scdn.co/image/ab67616d00001e024057fa6837109035dcde0e07",
              "height": 300,
              "width": 300
            },
            {
              "url": "https://i.scdn.co/image/ab67616d000048514057fa6837109035dcde0e07",
              "height": 64,
              "width": 64
            }
          ],
          "name": "American Girl",
          "release_date": "2013-07-23",
          "release_date_precision": "day",
          "type": "album",
          "uri": "spotify:album:4PwSDqUwhh4sZUHyi7UzXb",
          "artists": [
            {
              "external_urls": {
                "spotify": "https://open.spotify.com/artist/7dtJROxWQe3fxxF5t7o67N"
              },
              "href": "https://api.spotify.com/v1/artists/7dtJROxWQe3fxxF5t7o67N",
              "id": "7dtJROxWQe3fxxF5t7o67N",
              "name": "Bonnie McKee",
              "type": "artist",
              "uri": "spotify:artist:7dtJROxWQe3fxxF5t7o67N"
            }
          ],
          "is_playable": true
        },
        "artists": [
          {
            "external_urls": {
              "spotify": "https://open.spotify.com/artist/7dtJROxWQe3fxxF5t7o67N"
            },
            "href": "https://api.spotify.com/v1/artists/7dtJROxWQe3fxxF5t7o67N",
            "id": "7dtJROxWQe3fxxF5t7o67N",
            "name": "Bonnie McKee",
            "type": "artist",
            "uri": "spotify:artist:7dtJROxWQe3fxxF5t7o67N"
          }
        ],
        "disc_number": 1,
        "duration_ms": 224106,
        "explicit": false,
        "external_ids": {
          "isrc": "USSM11303884"
        },
        "external_urls": {
          "spotify": "https://open.spotify.com/track/0vvG0VEN6l2fbIEUtq3mQD"
        },
        "href": "https://api.spotify.com/v1/tracks/0vvG0VEN6l2fbIEUtq3mQD",
        "id": "0vvG0VEN6l2fbIEUtq3mQD",
        "is_playable": true,
        "name": "American Girl",
        "popularity": 45,
        "preview_url": null,
        "track_number": 1,
        "type": "track",
        "uri": "spotify:track:0vvG0VEN6l2fbIEUtq3mQD",
        "is_local": false
      },
      {
        "album": {
          "album_type": "single",
          "total_tracks": 1,
          "external_urls": {
            "spotify": "https://open.spotify.com/album/5LUbA5E8vsyAbFgmS2CZin"
          },
          "href": "https://api.spotify.com/v1/albums/5LUbA5E8vsyAbFgmS2CZin",
          "id": "5LUbA5E8vsyAbFgmS2CZin",
          "images": [
            {
              "url": "https://i.scdn.co/image/ab67616d0000b273a2cfef592b0039b9275ca5bc",
              "height": 640,
              "width": 640
            },
            {
              "url": "https://i.scdn.co/image/ab67616d00001e02a2cfef592b0039b9275ca5bc",
              "height": 300,
              "width": 300
            },
            {
              "url": "https://i.scdn.co/image/ab67616d00004851a2cfef592b0039b9275ca5bc",
              "height": 64,
              "width": 64
            }
          ],
          "name": "American Girl",
          "release_date": "2024-02-23",
          "release_date_precision": "day",
          "type": "album",
          "uri": "spotify:album:5LUbA5E8vsyAbFgmS2CZin",
          "artists": [
            {
              "external_urls": {
                "spotify": "https://open.spotify.com/artist/7x8nK0m0cP2ksQf0mjWdPS"
              },
              "href": "https://api.spotify.com/v1/artists/7x8nK0m0cP2ksQf0mjWdPS",
              "id": "7x8nK0m0cP2ksQf0mjWdPS",
              "name": "Dierks Bentley",
              "type": "artist",
              "uri": "spotify:artist:7x8nK0m0cP2ksQf0mjWdPS"
            }
          ],
          "is_playable": true
        },
        "artists": [
          {
            "external_urls": {
              "spotify": "https://open.spotify.com/artist/7x8nK0m0cP2ksQf0mjWdPS"
            },
            "href": "https://api.spotify.com/v1/artists/7x8nK0m0cP2ksQf0mjWdPS",
            "id": "7x8nK0m0cP2ksQf0mjWdPS",
            "name": "Dierks Bentley",
            "type": "artist",
            "uri": "spotify:artist:7x8nK0m0cP2ksQf0mjWdPS"
          }
        ],
        "disc_number": 1,
        "duration_ms": 183820,
        "explicit": false,
        "external_ids": {
          "isrc": "QZRD92404585"
        },
        "external_urls": {
          "spotify": "https://open.spotify.com/track/3PRTKWFigJCi47YAEsBpiP"
        },
        "href": "https://api.spotify.com/v1/tracks/3PRTKWFigJCi47YAEsBpiP",
        "id": "3PRTKWFigJCi47YAEsBpiP",
        "is_playable": true,
        "name": "American Girl",
        "popularity": 48,
        "preview_url": null,
        "track_number": 1,
        "type": "track",
        "uri": "spotify:track:3PRTKWFigJCi47YAEsBpiP",
        "is_local": false
      }
    ]
  }
}